Data Wrangling and Visualisation
…
ZMB

Zimbabwe

14439018

ZWE

Some country names could not be matched to a country code. Lets see which values in iso3 are NA values and remove them.

which(is.na(pops$iso3)) #index of NA values
pops[is.na(pops$iso3),] #rows with NA values for iso3

## # A tibble: 50 x 3
##    country                                       population iso3 
##    <chr>                                              <dbl> <chr>
##  1 Arab World                                     419790588 <NA> 
##  2 Central Europe and the Baltics                 102511922 <NA> 
##  3 Channel Islands                                   170499 <NA> 
##  4 Caribbean small states                           7358965 <NA> 
##  5 East Asia & Pacific (excluding high income)   2081651801 <NA> 
##  6 Early-demographic dividend                    3249140605 <NA> 
##  7 East Asia & Pacific                           2328220870 <NA> 
##  8 Europe & Central Asia (excluding high income)  417797257 <NA> 
##  9 Europe & Central Asia                          918793590 <NA> 
## 10 Euro area                                      341783171 <NA> 
## #  with 40 more rows
…
